%YAML 1.1
%TAG !u! tag:unity3d.com,2011:
--- !u!1045 &1
EditorBuildSettings:
  m_ObjectHideFlags: 0
  serializedVersion: 2
  m_Scenes: []
  m_configObjects:
    Unity.XR.OpenVR.Settings: {fileID: 11400000, guid: 819b8c48b75695543a9037c798e22a3c, type: 2}
    com.unity.xr.management.loader_settings: {fileID: 11400000, guid: 1a2b69a915aa93943bb96dce6f2d738e, type: 2}
