%YAML 1.1
%TAG !u! tag:unity3d.com,2011:
--- !u!162 &1
EditorUserSettings:
  m_ObjectHideFlags: 0
  serializedVersion: 4
  m_ConfigSettings:
    RecentlyUsedSceneGuid-0:
      value: 0252555304000a58555f5a75117b59441716197b7e2d723375284860b5e3663d
      flags: 0
    RecentlyUsedSceneGuid-1:
      value: 5a5757560101590a5d0c0e24427b5d44434e4c7a7b7a23677f2b4565b7b5353a
      flags: 0
    RecentlyUsedSceneGuid-2:
      value: 5154510450560a0f550f092641775b44414e482c7c2d71312f2d1e63b5e56368
      flags: 0
    RecentlyUsedSceneGuid-3:
      value: 0506055103045c5d5c575d23407b0844474e407c297e2368282f1c62bbb7353a
      flags: 0
    RecentlyUsedSceneGuid-4:
      value: 0650010754530b02545a5f7211775c4744164b7e2a2b7e36297f4d6abab5663c
      flags: 0
    RecentlyUsedSceneGuid-5:
      value: 5b09045756010c09090d082444200a4443154172757a77617e7e446ab7e13739
      flags: 0
    RecentlyUsedSceneGuid-6:
      value: 00020c055c07510f5a590877467b0c44414f4c72287974642c701e35e3e46d6a
      flags: 0
    vcSharedLogLevel:
      value: 0d5e400f0650
      flags: 0
  m_VCAutomaticAdd: 1
  m_VCDebugCom: 0
  m_VCDebugCmd: 0
  m_VCDebugOut: 0
  m_SemanticMergeMode: 2
  m_DesiredImportWorkerCount: 4
  m_StandbyImportWorkerCount: 2
  m_IdleImportWorkerShutdownDelay: 60000
  m_VCShowFailedCheckout: 1
  m_VCOverwriteFailedCheckoutAssets: 1
  m_VCProjectOverlayIcons: 1
  m_VCHierarchyOverlayIcons: 1
  m_VCOtherOverlayIcons: 1
  m_VCAllowAsyncUpdate: 1
  m_ArtifactGarbageCollection: 1
